# EUC.sfd
#
# subfont numbers for EUC encodings and its corresponding code ranges
# to be used with the CJK package for LaTeX.

01  0xA1A1_0xA1FE 0xA2A1_0xA2FE 0xA3A1_0xA3E4
02  0xA3E5_0xA3FE 0xA4A1_0xA4FE 0xA5A1_0xA5FE 0xA6A1_0xA6CA
03  0xA6CB_0xA6FE 0xA7A1_0xA7FE 0xA8A1_0xA8FE 0xA9A1_0xA9B0
04  0xA9B1_0xA9FE 0xAAA1_0xAAFE 0xABA1_0xABF4
05  0xABF5_0xABFE 0xACA1_0xACFE 0xADA1_0xADFE 0xAEA1_0xAEDA
06  0xAEDB_0xAEFE 0xAFA1_0xAFFE 0xB0A1_0xB0FE 0xB1A1_0xB1C0
07  0xB1C1_0xB1FE 0xB2A1_0xB2FE 0xB3A1_0xB3FE 0xB4A1_0xB4A6
08  0xB4A7_0xB4FE 0xB5A1_0xB5FE 0xB6A1_0xB6EA
09  0xB6EB_0xB6FE 0xB7A1_0xB7FE 0xB8A1_0xB8FE 0xB9A1_0xB9D0
10  0xB9D1_0xB9FE 0xBAA1_0xBAFE 0xBBA1_0xBBFE 0xBCA1_0xBCB6
11  0xBCB7_0xBCFE 0xBDA1_0xBDFE 0xBEA1_0xBEFA
12  0xBEFB_0xBEFE 0xBFA1_0xBFFE 0xC0A1_0xC0FE 0xC1A1_0xC1E0
13  0xC1E1_0xC1FE 0xC2A1_0xC2FE 0xC3A1_0xC3FE 0xC4A1_0xC4C6
14  0xC4C7_0xC4FE 0xC5A1_0xC5FE 0xC6A1_0xC6FE 0xC7A1_0xC7AC
15  0xC7AD_0xC7FE 0xC8A1_0xC8FE 0xC9A1_0xC9F0
16  0xC9F1_0xC9FE 0xCAA1_0xCAFE 0xCBA1_0xCBFE 0xCCA1_0xCCD6
17  0xCCD7_0xCCFE 0xCDA1_0xCDFE 0xCEA1_0xCEFE 0xCFA1_0xCFBC
18  0xCFBD_0xCFFE 0xD0A1_0xD0FE 0xD1A1_0xD1FE 0xD2A1_0xD2A2
19  0xD2A3_0xD2FE 0xD3A1_0xD3FE 0xD4A1_0xD4E6
20  0xD4E7_0xD4FE 0xD5A1_0xD5FE 0xD6A1_0xD6FE 0xD7A1_0xD7CC
21  0xD7CD_0xD7FE 0xD8A1_0xD8FE 0xD9A1_0xD9FE 0xDAA1_0xDAB2
22  0xDAB3_0xDAFE 0xDBA1_0xDBFE 0xDCA1_0xDCF6
23  0xDCF7_0xDCFE 0xDDA1_0xDDFE 0xDEA1_0xDEFE 0xDFA1_0xDFDC
24  0xDFDD_0xDFFE 0xE0A1_0xE0FE 0xE1A1_0xE1FE 0xE2A1_0xE2C2
25  0xE2C3_0xE2FE 0xE3A1_0xE3FE 0xE4A1_0xE4FE 0xE5A1_0xE5A8
26  0xE5A9_0xE5FE 0xE6A1_0xE6FE 0xE7A1_0xE7EC
27  0xE7ED_0xE7FE 0xE8A1_0xE8FE 0xE9A1_0xE9FE 0xEAA1_0xEAD2
28  0xEAD3_0xEAFE 0xEBA1_0xEBFE 0xECA1_0xECFE 0xEDA1_0xEDB8
29  0xEDB9_0xEDFE 0xEEA1_0xEEFE 0xEFA1_0xEFFC
30  0xEFFD_0xEFFE 0xF0A1_0xF0FE 0xF1A1_0xF1FE 0xF2A1_0xF2E2
31  0xF2E3_0xF2FE 0xF3A1_0xF3FE 0xF4A1_0xF4FE 0xF5A1_0xF5C8
32  0xF5C9_0xF5FE 0xF6A1_0xF6FE 0xF7A1_0xF7FE 0xF8A1_0xF8AE
33  0xF8AF_0xF8FE 0xF9A1_0xF9FE 0xFAA1_0xFAF2
34  0xFAF3_0xFAFE 0xFBA1_0xFBFE 0xFCA1_0xFCFE 0xFDA1_0xFDD8
35  0xFDD9_0xFDFE 0xFEA1_0xFEFE

# eof
